<?xml version="1.0" encoding="UTF-8"?>
<svg width="72px" height="72px" viewBox="0 0 72 72" version="1.1" xmlns="http://www.w3.org/2000/svg" xmlns:xlink="http://www.w3.org/1999/xlink">
    <!-- Generator: Sketch 51 (57462) - http://www.bohemiancoding.com/sketch -->
    <title>FTP</title>
    <desc>Created with Sketch.</desc>
    <defs></defs>
    <g id="FTP" stroke="none" stroke-width="1" fill="none" fill-rule="evenodd">
        <g id="Blockframe">
            <rect id="Rectangle" x="0" y="0" width="72" height="72"></rect>
        </g>
        <path d="M26.3671291,38.1687113 L19.8208749,38.1687113 L19.8208749,45.7035835 L16,45.7035835 L16,27 L26.3671291,27 L26.3671291,30.233048 L19.8208749,30.233048 L19.8208749,34.9356633 L26.3671291,34.9356633 L26.3671291,38.1687113 Z M40.2612197,30.233048 L35.8257985,30.233048 L35.8257985,45.7035835 L32.0049236,45.7035835 L32.0049236,30.233048 L27.5695024,30.233048 L27.5695024,27 L40.2612197,27 L40.2612197,30.233048 Z M42.5590886,27 L48.5175159,27 C49.3547281,27 50.1696618,27.1068766 50.9623414,27.3206329 C51.7550211,27.5343892 52.4987038,27.859472 53.1934118,28.2958911 C53.8881198,28.7323103 54.4492217,29.3379441 54.8767343,30.1128107 C55.3042469,30.8876773 55.518,31.7827684 55.518,32.7981109 C55.518,33.8312664 55.3087001,34.7397171 54.890094,35.5234902 C54.4714879,36.3072633 53.910386,36.9173503 53.2067715,37.3537694 C52.503157,37.7901886 51.7594743,38.1152714 50.9757011,38.3290277 C50.191928,38.542784 49.3725411,38.6496606 48.5175159,38.6496606 L46.3799635,38.6496606 L46.3799635,45.7035835 L42.5590886,45.7035835 L42.5590886,27 Z M46.3799635,30.233048 L46.3799635,35.4166126 L47.9029696,35.4166126 C50.272102,35.4166126 51.4566504,34.5705065 51.4566504,32.8782691 C51.4566504,32.0588699 51.1805527,31.4131574 50.6283489,30.9411122 C50.0761451,30.4690671 49.3369156,30.233048 48.4106383,30.233048 L46.3799635,30.233048 Z" fill="#000000"></path>
    </g>
</svg>