<?xml version="1.0" encoding="UTF-8"?>
<svg width="24px" height="24px" viewBox="0 0 24 24" version="1.1" xmlns="http://www.w3.org/2000/svg" xmlns:xlink="http://www.w3.org/1999/xlink">
    <!-- Generator: Sketch 51.1 (57501) - http://www.bohemiancoding.com/sketch -->
    <title>@Targeting/Competitons Copy</title>
    <desc>Created with Sketch.</desc>
    <defs></defs>
    <g id="@Targeting/Competitons-Copy" stroke="none" stroke-width="1" fill="none" fill-rule="evenodd">
        <rect id="Bounding-Box" x="0" y="0" width="24" height="24"></rect>
        <g id="Group" transform="translate(0.000000, 1.000000)" fill="#202022">
            <path d="M1.5,20.5333333 C1.5,21.3429333 2.1735,22 3,22 L10.5,22 L10.5,11.7333333 L1.5,11.7333333 L1.5,20.5333333" id="Fill-1"></path>
            <path d="M15.255,1.93013333 C15.8595,1.3332 16.917,1.33026667 17.5275,1.93013333 C18.1575,2.54906667 18.1575,3.55813333 17.5275,4.17706667 C16.881,4.8136 14.9025,5.86666667 13.8645,5.86666667 C13.6515,5.86666667 13.5885,5.81973333 13.5885,5.81826667 C13.239,5.4648 14.244,2.92453333 15.255,1.93013333 Z M6.4725,4.17706667 C5.844,3.55813333 5.844,2.54906667 6.4725,1.93013333 C6.777,1.63093333 7.1805,1.46666667 7.6095,1.46666667 C8.037,1.46666667 8.4405,1.63093333 8.745,1.93013333 C9.756,2.92453333 10.761,5.4648 10.4115,5.81826667 C10.4115,5.81826667 10.3485,5.86666667 10.134,5.86666667 C9.0975,5.86666667 7.119,4.8136 6.4725,4.17706667 Z M22.5,5.86666667 L17.754,5.86666667 C18.0945,5.63933333 18.387,5.41346667 18.591,5.21106667 C19.8015,4.0216 19.8015,2.0856 18.591,0.896133333 C17.415,-0.262533333 15.366,-0.2596 14.1915,0.896133333 C13.5405,1.53413333 11.8155,4.1316 12.054,5.86666667 L11.946,5.86666667 C12.183,4.1316 10.458,1.53413333 9.8085,0.896133333 C8.6325,-0.2596 6.5835,-0.2596 5.409,0.896133333 C4.2,2.0856 4.2,4.0216 5.4075,5.21106667 C5.613,5.41346667 5.9055,5.63933333 6.246,5.86666667 L1.5,5.86666667 C0.6735,5.86666667 0,6.5252 0,7.33333333 L0,9.53333333 C0,9.93813333 0.336,10.2666667 0.75,10.2666667 L10.5,10.2666667 L10.5,7.33333333 L13.5,7.33333333 L13.5,10.2666667 L23.25,10.2666667 C23.664,10.2666667 24,9.93813333 24,9.53333333 L24,7.33333333 C24,6.5252 23.328,5.86666667 22.5,5.86666667 Z" id="Fill-3"></path>
            <path d="M13.5,22 L21,22 C21.828,22 22.5,21.3429333 22.5,20.5333333 L22.5,11.7333333 L13.5,11.7333333 L13.5,22" id="Fill-4"></path>
        </g>
    </g>
</svg>